Panel Data Analysis - Solutions
…
At which age did individual with ID “5790002” become father?

Code

data.df[data.df$pid == 5790002, ]

# A tibble: 25 × 30
       pid  year   age fsize hours child  ten1  ten2  ten3  ten4  ten5  ten6
     <dbl> <dbl> <dbl> <dbl> <dbl> <dbl> <dbl> <dbl> <dbl> <dbl> <dbl> <dbl>
 1 5790002  1969    31     2  2352     0     0     0     1     0     0     0
 2 5790002  1970    32     2  1960     0     0     0     1     0     0     0
 3 5790002  1971    33     2  2040     0     0     0     0     1     0     0
 4 5790002  1972    34     2  1880     0     0     0     0     1     0     0
 5 5790002  1973    35     3  1578     1     1     0     0     0     0     0
 6 5790002  1974    37     3  2400     1     0     1     0     0     0     0
 7 5790002  1975    37     3   890     1     0     0     1     0     0     0
 8 5790002  1976    37     3  1060     1     0     1     0     0     0     0
 9 5790002  1977    38     3  2041     1     0     0     1     0     0     0
10 5790002  1978    40     3  1820     1     0     0     1     0     0     0
# ℹ 15 more rows
# ℹ 18 more variables: changejob <dbl>, logwages <dbl>, white <dbl>,
#   smsa <dbl>, dropout <dbl>, grad <dbl>, college <dbl>, neast <dbl>,
#   ncentr <dbl>, south <dbl>, west <dbl>, married <dbl>, profes <dbl>,
#   admin <dbl>, sales <dbl>, crafts <dbl>, operat <dbl>, servic <dbl>
…
# View(data.df[data.df$pid == 5790002, ])

Please calculate the average age for each person.

Code

# Ave by id
data.df$m_age <- ave(data.df$age,
                     by = data.df$pid,
                     FUN = function(x) mean(x, na.rm = TRUE))

data.df[,c ("pid", "year", "age", "m_age")]

# A tibble: 32,066 × 4
     pid  year   age m_age
   <dbl> <dbl> <dbl> <dbl>
 1  4175  1985    25    29
 2  4175  1986    26    29
 3  4175  1987    27    29
 4  4175  1988    28    29
 5  4175  1989    29    29
 6  4175  1990    30    29
 7  4175  1991    31    29
 8  4175  1992    32    29
 9  4175  1993    33    29
10 11003  1979    26    33
# ℹ 32,056 more rows
…
Code

# Make sure the data is ordered by id and year
data.df <- data.df[order(data.df$pid, data.df$year), ]

# Use dplyr::lag to calculate the age in the previous period
# Put into ave by id to make sure to use only information within each id
data.df$lag_age <- ave(data.df$age,
                       by = data.df$pid,
                       FUN = function(x) dplyr::lag(x, n = 1)) # 1 year lag

data.df[,c ("pid", "year", "age", "m_age", "lag_age")]

# A tibble: 32,066 × 5
     pid  year   age m_age lag_age
   <dbl> <dbl> <dbl> <dbl>   <dbl>
 1  4175  1985    25    29      NA
 2  4175  1986    26    29      25
 3  4175  1987    27    29      26
 4  4175  1988    28    29      27
 5  4175  1989    29    29      28
 6  4175  1990    30    29      29
 7  4175  1991    31    29      30
 8  4175  1992    32    29      31
 9  4175  1993    33    29      32
10 11003  1979    26    33      NA
# ℹ 32,056 more rows
…
data.df$never_child <- ifelse(data.df$tmp == 0, 1, 0)

# set never treated to zero
data.df$treat_timing[data.df$never_child == 1] <- 0

# if married is not NA, used min year per id (removing NAs)
oo <- which(!is.na(data.df$child_hh))
data.df$treat_timing[oo] <- ave(data.df$treat_timing[oo],
                                data.df$pid[oo],
                                FUN = function(x) min(x, na.rm = TRUE))

head(data.df[, c("pid", "year", "child_hh", "never_child", "treat_timing")], n = 35)

# A tibble: 35 × 5
     pid  year child_hh never_child treat_timing
   <dbl> <dbl>    <dbl>       <dbl>        <dbl>
 1 11003  1979        0           1            0
 2 11003  1980        0           1            0
 3 11003  1981        0           1            0
 4 11003  1982        0           1            0
 5 11003  1983        0           1            0
 6 11003  1984        0           1            0
 7 11003  1985        0           1            0
 8 11003  1986        0           1            0
 9 11003  1987        0           1            0
10 11003  1988        0           1            0
# ℹ 25 more rows
…
